Lab5/CombinatorialLogic/CombinatorialLogic.sim/sim_1/behav/xsim/dump.vcd
$date
   Tue Feb 11 11:56:18 2025
$end

$version
  2024.2.0
$end

$timescale
  1ps
$end

$scope module test $end
$var reg 8 ! sw [7:0] $end
$var wire 5 " led [4:0] $end
$scope module uut $end
$var wire 8 # sw [7:0] $end
$var wire 6 $ led [5:0] $end
$scope module stairs $end
$var wire 1 % downstairs $end
$var wire 1 & upstairs $end
$var wire 1 ' stair_light $end
$upscope $end
$scope module oneBitAdder $end
$var wire 1 ( A $end
$var wire 1 ) B $end
$var wire 1 * Y $end
$var wire 1 + carry $end
$upscope $end
$scope module twoBitAdder $end
$var wire 2 , A [5:4] $end
$var wire 2 - B [7:6] $end
$var wire 2 . sum [4:3] $end
$var wire 1 / carry $end
$var wire 1 0 cout $end
$var wire 1 1 cin $end
$scope module oneBitAdder $end
$var wire 1 2 A $end
$var wire 1 3 B $end
$var wire 1 4 Y $end
$var wire 1 0 carry $end
$upscope $end
$upscope $end
$upscope $end
$upscope $end
$enddefinitions $end

#0
$dumpvars
b0 !
b0 "
b0 #
b0 $
0%
0&
0'
0(
0)
0*
0+
b0 ,
b0 -
b0 .
0/
00
01
02
03
04
$end

#200000
b10110 !
b1011 "
b10110 #
b1011 $
0%
1&
1'
1(
0)
1*
b1 ,
b0 -
b1 .
12
03
14

#400000
b101001 !
b10011 "
b101001 #
b10011 $
1%
0&
0(
1)
b10 ,
b0 -
b10 .
02
03
04

#600000
b111111 !
b11100 "
b111111 #
b11100 $
1%
1&
0'
1(
1)
0*
1+
b11 ,
b0 -
b11 .
12
03
14

#800000
b1001111 !
b1100 "
b1001111 #
b1100 $
1%
1&
1(
1)
b0 ,
b1 -
b1 .
02
13

#1000000
b1011111 !
b10100 "
b1011111 #
b10100 $
1%
1&
1(
1)
b1 ,
b1 -
b10 .
10
11
12
13
04

#1200000
b1101111 !
b11100 "
b1101111 #
b11100 $
1%
1&
1(
1)
b10 ,
b1 -
b11 .
0/
00
01
02
13
14

#1400000
b1111111 !
b100 "
b1111111 #
b100100 $
1%
1&
1(
1)
b11 ,
b1 -
b0 .
1/
10
11
12
13
04

#1600000
b10001111 !
b10100 "
b10001111 #
b10100 $
1%
1&
1(
1)
b0 ,
b10 -
b10 .
0/
00
01
02
03

#1800000
b10011111 !
b11100 "
b10011111 #
b11100 $
1%
1&
1(
1)
b1 ,
b10 -
b11 .
12
03
14

#2000000
b10101111 !
b100 "
b10101111 #
b100100 $
1%
1&
1(
1)
b10 ,
b10 -
b0 .
1/
02
03
04

#2200000
b10111111 !
b1100 "
b10111111 #
b101100 $
1%
1&
1(
1)
b11 ,
b10 -
b1 .
12
03
14

#2400000
b11001111 !
b11100 "
b11001111 #
b11100 $
1%
1&
1(
1)
b0 ,
b11 -
b11 .
0/
02
13

#2600000
b11011111 !
b100 "
b11011111 #
b100100 $
1%
1&
1(
1)
b1 ,
b11 -
b0 .
1/
10
11
12
13
04

#2800000
b11101111 !
b1100 "
b11101111 #
b101100 $
1%
1&
1(
1)
b10 ,
b11 -
b1 .
00
01
02
13
14

#3000000
b11111111 !
b10100 "
b11111111 #
b110100 $
1%
1&
1(
1)
b11 ,
b11 -
b10 .
10
11
12
13
04
